Performs the latent trait analysis — latent_trait_analysis • airt
…
#> 70  2.47207367        x1
#> 71  2.54817444        x1
#> 72  2.62427520        x1
#> 73  2.70037597        x1
#> 74  2.77647674        x1
#> 75  2.85257751        x1
#> 76  2.92867827        x1
#> 77  3.00477904        x1
#> 78  3.08087981        x1
#> 79  3.15698057        x1
#> 80  3.23308134        x1
#> 
#> 
#> $longdf
#> # A tibble: 300 x 3
#>    Latent_Trait Algorithm  value
#>           <dbl> <chr>      <dbl>
#>  1        -2.78 x1        0.0134
#>  2        -2.78 x2        0.511 
#>  3        -2.78 x3        0.258 
#>  4        -2.42 x1        0.0233
#>  5        -2.42 x2        0.175 
#>  6        -2.42 x3        0.429 
#>  7        -2.03 x1        0.0589
#>  8        -2.03 x2        0.389 
#>  9        -2.03 x3        0.131 
#> 10        -1.79 x1        0.0995
#> # ... with 290 more rows
…
